%!PS-Adobe-3.0
%%Creator: inkscape 0.46
%%Pages: 1
%%Orientation: Landscape
%%BoundingBox: 0 0 192 679
%%HiResBoundingBox: 0 0 192 679
%%DocumentMedia: plain 192 679 0 () ()
%%EndComments
%%Page: 1 1
90 rotate
0.8 -0.8 scale
0 0 0 setrgbcolor
[] 0 setdash
1 setlinewidth
0 setlinejoin
0 setlinecap
gsave [1 0 0 1 0 0] concat
gsave [1 0 0 1 -31.489708 -4.0944824] concat
gsave
0.29803923 0.29803923 0.72549021 setrgbcolor
newpath
40 84.094482 moveto
800 84.094482 lineto
800 164.09448 lineto
40 164.09448 lineto
40 84.094482 lineto
closepath
fill
grestore
gsave [1 0 -0.999994 1 84.093978 0] concat
gsave
0.49411765 0.49803922 0.72549021 setrgbcolor
newpath
40 4.0944824 moveto
800 4.0944824 lineto
800 84.094482 lineto
40 84.094482 lineto
40 4.0944824 lineto
closepath
fill
grestore
grestore
gsave [0.7071089 -0.7071046 0 1 0 0] concat
gsave
0.64705884 0.62352943 0.72549021 setrgbcolor
newpath
1131.3674 884.08911 moveto
1244.5042 884.08911 lineto
1244.5042 964.08911 lineto
1131.3674 964.08911 lineto
1131.3674 884.08911 lineto
closepath
fill
grestore
grestore
gsave
0 0 0 setrgbcolor
newpath
406.94531 59.446045 moveto
415.96875 59.446045 lineto
415.96875 28.301514 lineto
406.15234 30.270264 lineto
406.15234 25.239014 lineto
415.91406 23.270264 lineto
421.4375 23.270264 lineto
421.4375 59.446045 lineto
430.46094 59.446045 lineto
430.46094 64.094482 lineto
406.94531 64.094482 lineto
406.94531 59.446045 lineto
fill
grestore
gsave
0 0 0 setrgbcolor
newpath
453.34766 26.906982 moveto
450.50389 26.90702 448.36197 28.310664 446.92188 31.11792 curveto
445.49999 33.907013 444.78905 38.108831 444.78906 43.723389 curveto
444.78905 49.319758 445.49999 53.521576 446.92188 56.328857 curveto
448.36197 59.117925 450.50389 60.512455 453.34766 60.512451 curveto
456.20961 60.512455 458.35154 59.117925 459.77344 56.328857 curveto
461.21352 53.521576 461.93357 49.319758 461.93359 43.723389 curveto
461.93357 38.108831 461.21352 33.907013 459.77344 31.11792 curveto
458.35154 28.310664 456.20961 26.90702 453.34766 26.906982 curveto
453.34766 22.531982 moveto
457.92315 22.532024 461.41404 24.345824 463.82031 27.973389 curveto
466.24476 31.582796 467.457 36.832791 467.45703 43.723389 curveto
467.457 50.595798 466.24476 55.845793 463.82031 59.473389 curveto
461.41404 63.082765 457.92315 64.88745 453.34766 64.887451 curveto
448.77212 64.88745 445.27213 63.082765 442.84766 59.473389 curveto
440.4414 55.845793 439.23828 50.595798 439.23828 43.723389 curveto
439.23828 36.832791 440.4414 31.582796 442.84766 27.973389 curveto
445.27213 24.345824 448.77212 22.532024 453.34766 22.531982 curveto
fill
grestore
gsave
0 0 0 setrgbcolor
newpath
489.00391 26.906982 moveto
486.16014 26.90702 484.01822 28.310664 482.57812 31.11792 curveto
481.15624 33.907013 480.4453 38.108831 480.44531 43.723389 curveto
480.4453 49.319758 481.15624 53.521576 482.57812 56.328857 curveto
484.01822 59.117925 486.16014 60.512455 489.00391 60.512451 curveto
491.86586 60.512455 494.00779 59.117925 495.42969 56.328857 curveto
496.86977 53.521576 497.58982 49.319758 497.58984 43.723389 curveto
497.58982 38.108831 496.86977 33.907013 495.42969 31.11792 curveto
494.00779 28.310664 491.86586 26.90702 489.00391 26.906982 curveto
489.00391 22.531982 moveto
493.5794 22.532024 497.07029 24.345824 499.47656 27.973389 curveto
501.90101 31.582796 503.11325 36.832791 503.11328 43.723389 curveto
503.11325 50.595798 501.90101 55.845793 499.47656 59.473389 curveto
497.07029 63.082765 493.5794 64.88745 489.00391 64.887451 curveto
484.42837 64.88745 480.92838 63.082765 478.50391 59.473389 curveto
476.09765 55.845793 474.89453 50.595798 474.89453 43.723389 curveto
474.89453 36.832791 476.09765 31.582796 478.50391 27.973389 curveto
480.92838 24.345824 484.42837 22.532024 489.00391 22.531982 curveto
fill
grestore
gsave
0 0 0 setrgbcolor
newpath
38.544395 193.39084 moveto
37.122513 193.39086 36.05155 194.09268 35.331505 195.49631 curveto
34.620562 196.89085 34.265094 198.99176 34.265099 201.79904 curveto
34.265094 204.59723 34.620562 206.69814 35.331505 208.10178 curveto
36.05155 209.49631 37.122513 210.19357 38.544395 210.19357 curveto
39.975375 210.19357 41.046337 209.49631 41.757286 208.10178 curveto
42.477325 206.69814 42.837351 204.59723 42.837364 201.79904 curveto
42.837351 198.99176 42.477325 196.89085 41.757286 195.49631 curveto
41.046337 194.09268 39.975375 193.39086 38.544395 193.39084 curveto
38.544395 191.20334 moveto
40.832145 191.20336 42.577586 192.11026 43.780724 193.92404 curveto
44.992948 195.72875 45.599067 198.35374 45.599083 201.79904 curveto
45.599067 205.23525 44.992948 207.86024 43.780724 209.67404 curveto
42.577586 211.47873 40.832145 212.38107 38.544395 212.38107 curveto
36.256628 212.38107 34.50663 211.47873 33.294395 209.67404 curveto
32.091268 207.86024 31.489706 205.23525 31.489708 201.79904 curveto
31.489706 198.35374 32.091268 195.72875 33.294395 193.92404 curveto
34.50663 192.11026 36.256628 191.20336 38.544395 191.20334 curveto
fill
grestore
gsave
0 0 0 setrgbcolor
newpath
50.46627 208.51193 moveto
53.351036 208.51193 lineto
53.351036 211.98459 lineto
50.46627 211.98459 lineto
50.46627 208.51193 lineto
fill
grestore
gsave
0 0 0 setrgbcolor
newpath
59.858849 209.66037 moveto
64.370567 209.66037 lineto
64.370567 194.0881 lineto
59.462364 195.07248 lineto
59.462364 192.55685 lineto
64.343224 191.57248 lineto
67.104942 191.57248 lineto
67.104942 209.66037 lineto
71.616661 209.66037 lineto
71.616661 211.98459 lineto
59.858849 211.98459 lineto
59.858849 209.66037 lineto
fill
grestore
gsave
0 0 0 setrgbcolor
newpath
785.5733 208.22003 moveto
784.2608 208.22004 783.22629 208.57095 782.46979 209.27277 curveto
781.72239 209.9746 781.34869 210.94074 781.34869 212.1712 curveto
781.34869 213.40168 781.72239 214.36782 782.46979 215.06964 curveto
783.22629 215.77147 784.2608 216.12238 785.5733 216.12238 curveto
786.88579 216.12238 787.9203 215.77147 788.67682 215.06964 curveto
789.43332 214.35871 789.81157 213.39256 789.81158 212.1712 curveto
789.81157 210.94074 789.43332 209.9746 788.67682 209.27277 curveto
787.92941 208.57095 786.89491 208.22004 785.5733 208.22003 curveto
782.81158 207.04425 moveto
781.62668 206.75259 780.70155 206.20116 780.03619 205.38995 curveto
779.37994 204.57877 779.05182 203.58984 779.05182 202.42316 curveto
779.05182 200.79166 779.63059 199.50195 780.78815 198.55402 curveto
781.95481 197.60612 783.54986 197.13216 785.5733 197.13214 curveto
787.60584 197.13216 789.20089 197.60612 790.35846 198.55402 curveto
791.516 199.50195 792.09477 200.79166 792.09479 202.42316 curveto
792.09477 203.58984 791.76209 204.57877 791.09674 205.38995 curveto
790.44048 206.20116 789.52446 206.75259 788.34869 207.04425 curveto
789.67941 207.35416 790.71391 207.96028 791.45221 208.86261 curveto
792.19959 209.76496 792.57329 210.86783 792.5733 212.1712 curveto
792.57329 214.14907 791.96717 215.66665 790.75494 216.72394 curveto
789.55181 217.78123 787.82459 218.30988 785.5733 218.30988 curveto
783.32199 218.30988 781.59023 217.78123 780.37799 216.72394 curveto
779.17486 215.66665 778.5733 214.14907 778.5733 212.1712 curveto
778.5733 210.86783 778.947 209.76496 779.6944 208.86261 curveto
780.44179 207.96028 781.48085 207.35416 782.81158 207.04425 curveto
781.79987 202.68292 moveto
781.79986 203.74023 782.12799 204.5651 782.78424 205.15753 curveto
783.4496 205.74999 784.37929 206.04622 785.5733 206.0462 curveto
786.75819 206.04622 787.68332 205.74999 788.34869 205.15753 curveto
789.02316 204.5651 789.3604 203.74023 789.36041 202.68292 curveto
789.3604 201.62565 789.02316 200.80078 788.34869 200.20831 curveto
787.68332 199.61588 786.75819 199.31966 785.5733 199.31964 curveto
784.37929 199.31966 783.4496 199.61588 782.78424 200.20831 curveto
782.12799 200.80078 781.79986 201.62565 781.79987 202.68292 curveto
fill
grestore
gsave
0 0 0 setrgbcolor
newpath
803.40143 199.31964 moveto
801.97955 199.31966 800.90858 200.02148 800.18854 201.42511 curveto
799.4776 202.81966 799.12213 204.92057 799.12213 207.72784 curveto
799.12213 210.52603 799.4776 212.62694 800.18854 214.03058 curveto
800.90858 215.42511 801.97955 216.12238 803.40143 216.12238 curveto
804.83241 216.12238 805.90337 215.42511 806.61432 214.03058 curveto
807.33436 212.62694 807.69438 210.52603 807.6944 207.72784 curveto
807.69438 204.92057 807.33436 202.81966 806.61432 201.42511 curveto
805.90337 200.02148 804.83241 199.31966 803.40143 199.31964 curveto
803.40143 197.13214 moveto
805.68918 197.13216 807.43462 198.03906 808.63776 199.85284 curveto
809.84998 201.65755 810.4561 204.28255 810.45612 207.72784 curveto
810.4561 211.16405 809.84998 213.78905 808.63776 215.60284 curveto
807.43462 217.40753 805.68918 218.30988 803.40143 218.30988 curveto
801.11366 218.30988 799.36366 217.40753 798.15143 215.60284 curveto
796.9483 213.78905 796.34674 211.16405 796.34674 207.72784 curveto
796.34674 204.28255 796.9483 201.65755 798.15143 199.85284 curveto
799.36366 198.03906 801.11366 197.13216 803.40143 197.13214 curveto
fill
grestore
gsave
0 0 0 setrgbcolor
newpath
463.47266 241.77026 moveto
467.98438 241.77026 lineto
467.98438 226.198 lineto
463.07617 227.18237 lineto
463.07617 224.66675 lineto
467.95703 223.68237 lineto
470.71875 223.68237 lineto
470.71875 241.77026 lineto
475.23047 241.77026 lineto
475.23047 244.09448 lineto
463.47266 244.09448 lineto
463.47266 241.77026 lineto
fill
grestore
gsave
0 0 0 setrgbcolor
newpath
423.80408 186.09869 moveto
432.08923 186.09869 lineto
436.84705 213.60651 lineto
452.65173 186.09869 lineto
461.15564 186.09869 lineto
453.19861 226.92291 lineto
447.83923 226.92291 lineto
454.78455 191.12994 lineto
438.76111 219.07526 lineto
433.37439 219.07526 lineto
428.17908 191.02057 lineto
421.23376 226.92291 lineto
415.84705 226.92291 lineto
423.80408 186.09869 lineto
fill
grestore
grestore
grestore
showpage
%%EOF
